0.5
30 minutes
45 minutes
60 minutes
1 hour
30 minutes
1 hour
1
2 hours
30
30 mins
30 minutes
20 minutes
1 hour
1 hour
 20 min
40 mins
5min
1 hour
10 minutes
1 hour
20 minutes
30 minutes
4h
1 hour
2 hours
1 hour
30 mins
1 hour
1h
10m
1 hr
30 minutes
1h
1 hour
1 hour
20 minutes
2
30min
1 Hour
2:00:00
15min
30min
15 min
30 minutes
30 minutes
30 minutes
30 minuties
60m
1
1.5 hours
1
1 hour
2 hours
60
30 minutes
1 hour
30 minutes
15 min
30min
30min
90 minutes
30 minutes
5 minutes
1 hour
1 hour
45m
1
1
30 minutes.
2h
1 hour
10 mins
15 minutes
1 hour
60
90 minutes
1 hour
10 min
2 hours
1 hour
1 hour
30mins
30 minutes
1
30
1 hour
30 minutes
30 minutes
1-2 hours
1 hour
30mins
30 mins
1 hour +
10 minutes
2 hours a day
1
60
15 min
2 hours
2 hours
1h

60m
1 hour
1 hour
15 minutes
20 minutes
2
30 minutes
2 hours
30 minutes
60 minutes
30 mins
2 hours
30 min
3 hours
2 hours
8 hours
1
2
15 minutes
1 hour
1 hour
10 minutes
45 min
1 hour
1 hour
15m
60 minutes
10 mins
up to 30 minutes
1 hour
30 minutes
1h
30 min
30-60min
30 minutes
30 minutes
0.5 hrs
1h
1 hour
30 minutes
2 hours
30 minutes
1 hour
20 minutes
2
2 hours
15 minutes
15
30 minutes
30 minutes
15 minutes
30 minutes
1 hour
20
20 minutes
2 hours
1 hour
1 hour
30
45 min
15 minutes
30 minutes
30 minutes
30 minutes
30min
1
30 minutes
30 minutes
1-2 hours
1 to 2 hours depending on if email requires phone call clarification
1 hour
30min
20
2 hours
30mins
10 minutes
20 minutes
2 hours
3 hours
30min
30 minutes
20 min
30m
15 minutes
30 minutes
10m
:30
30m
1 hour
2 hours
0.5
20 minutes
45 minutes
1 hrs
2 hours
0
45 mins
1-2 hours
1 hour
3h
20 minutes
30 minutes
1-2 hours
1 hour
30 minutes
0.5
30 minutes
1 hour
10 minutes
2 hours
1
30 minutes
30 minutes
1hr
20 minutes
60
30 minutes
2h
30 minutes
1 hour
1 hour
30 min
30 minutes
90 minutes
1 hour
30'
0-30 minutes
30 minutes
30 min
1
90 minutes
1
1 Hour

30 minutes
2
30 minutes
60 minutes
half an hour
90m
2 hrs
1hr
20 minutes
1 hour
1 hour

0
15 minutes
1.5 hours
20 minutes
45min
30 minutes
90 minutes
30 minutes
2 hours
30 minutes
30 minutes
1
1hr
1.5 hours
1
30 minutes
1 hour
1 hr
20 minutes
2
1 hour
45 minutes
1 hour
20 minutes
1
1h

30
1h
15 minutes to 1 hour
45 minutes
20 min
1 hour
30 minutes
1hr
20 minutes
2 hours
0.25 hours
10
2
45 minutes
30 mins
About 1 to 2 hours a day (when you count emails from our ticketing system too, otherwise less than 20 minutes a day)
30 minutes
3 hours
30 minutes
1 hour
3 hours
1 hour
1hr
5 min
45mins
1 hour
1 hour
2 hours
30m
15
10 min
2 minutes
10 minutes
1
2h
30 minutes
30 minutes
2 hrs
15 minutes
1 hour
15
2.5h
3 hours
10minutes
20 mintes (in total, th tab is always open)
20
1 hour
1 HR
10 minutes
1h
1
30minutes
0.5
1h
1
1 hours
30 minutes
30 minutes
30 minutes
30m
2 hours
1 hour
10 minutes
30 minutes
10 minutes
2 hours
30
10 minutes
2 hrs
1 hour
30
2 hours
1h
30 minutes
30 minutes
30 minutes
1.5 hours
30 minutes

30 minutes
15 minutes
30 minutes
1 hour
1 hour
20min
1 hour
30 minutes
15
10 minutes
40min
1-2 hours
15 minutes
30 minutes
1 hour
20m
1hr
40min
30 minutes
2
15 minutes
1 hour
1h
2
30 minutes
20 minutes
20 min
30 minutes
30 minutes
1 hour
0.5 hours
30 minutes
1
Too much. 2+
1 hour
2 hours
1 hour
10 minutes
30 minites
4 hours
20 minutes
15
30m
20min
1 hour
45 minutes - 1 hour
~10 minutes
1 hour
30 minutes
1 hour
90minutes
30 minutes
1 hour
1 hour
30 minutes
1 hour
1 hour
30 minutes
1 hour
30 minutes
15 minutes
30 min
1 hr
2
30 minutes
1 hour
0h30m
30
30 minutes
15 min
1h
1
1 hour
1 hour
5 minutes
90 minutes
1 hour
30 min
30m
20 minutes
30 minutes
~25 minutes
1 hour
20 mins
1 hour
30 min
1h
1
30 mins
1 hour
1 hour
~25 minutes
1 hour
1 hour
15 minutes
1 hour a day
30min
1 hour
60min
0-20 minutes
30 minutes tops
1
30 min
2 hours
30 mins
50 mins
1:00:00
1-2 hours per day
20 minutes

10m
30min
1 hour
45m
1 hour
20 mins
1 hrs
1
20 minutes
2 minutes
1 hour
15 min
30mins
30min
30 minutes
30 minutes
1h
30 minutes
1
2
30 minutes
30 min
30mins
20 minutes
30m
1hr
60 minutes
5 hours
30 minutes
1 hr
30 minutes
10min
1 hour
30 minutes
1 hour
<10m
90
1.5 Hours
10 minutes
30 min
30 minutes
2 hours
15 minutes
1 hour
5 to 15 minutes
1 hour
1.5 hours
30
30 minutes
2 hours
1
10m
1 hour
30 minutes
1h
25 minutes
1 hour
1 hour
3 hrs
30 minutes
10
30 minutes
30 minutes
15 minutes
10 minutes
2 hours
1:00:00
1 hour
60 min
1
1 hour
2hrs
30 minutes
1 hour
15 minutes
2 hours
2 hours
30 minutes
15 minutes
90mins
2 hours
30 minutes
1hour
30 minutes
2 hours
1 hour

2 hours
20min
1 hour
45 minutes
2
15 minutes
15 minutes
1h
20 minutes
1 hour
2
30mins
40min
1 hour
1
1 hour
45min
30-45 min
1H
1 hour
1 hour
one hour
3h
80 minutes
4 hours
20'
20
1 hour
30m
30 minutes
2.5 hours
30 minutes

90 minutes


30 minutes
30 minutes
20 minutes
10 minutes
1
25 minutes
30 minutes
1
1 hour
30 minutes
30 minutes
1 hour
2
45 min
2h
1
2 hours
1 hour
15 min
30-60 min
1hr
3 hours
30 min
20m
20 minutes
1 hour
1hr
2 hours
20 minutes
20 minutes
2
5 minutes
60 minutes
60 minutes
15 minutes
2 hours
30 min
15 minutes
0
30 min
4 hours
1hour
1 hour
1 hour
15 minutes
15 minutes
15 minutes
5 minutes
1 hour
2 hours 
1 hour
15 minutes
15 minutes
0:15:00
30 minutes
15 minutes
1 hour
1h
1
1h00
2 hours
1 hour
30 minutes
30 minutes
1
30 	mins
1 hour
1 hour
20min
30 minutes
1 hour
1 hour
1 hour
20 minutes
15 minutes
30mins
30minutes
5
2
30 minutes
45m
10 minutes
30 minutes
30mins
15 minutes
15 minutes
30
15-30 minutes
30 minutes

45min
45min
4 hours
5 minutes
1 hour
5
1hr
30 minutes
1
1-2 hours
30-45 min
30 mins, unless I have to wrote a long detailed argument, then it's hours
30 minutes
3 hours
1.5 hours
20 min
30 minutes


1 hour
1 hour
20
1.5 hours
15 minutes
30m
1 hour
30
1
15 minutes
30 minutes
2 hours
30 minutes
15 minutes
30m
30min
4 hours
1hr
Around 30 minutes
8
2 hours
1 hour
45 minutes to 60 minutes
1 hour
1 hour
30min
30 minutes
.5 hours
1.5
1.5 hours
15 minutes
1 hour
1 hour

1 hour
30 minutes
30 minutes
1 hr
1 hour
2h
1h
15 min
20 min
1
1 hour
30 minutes
1 hour
0:15:00
2 hours
10 minutes
1 hour
5 hours
15min
90
45 minutes
30 minutes
20 min
1 hour
45
30 minutes
2 hours
10 minutes
20min
60
1 hour
45min
20 minutes
10 mins
30 minutes
30 min
1 hour
30 Minutes
30 minutes
30 minutes
1-2 hours
30 minutes
45 minutes
1-2 hours
10 minutes
1
1hr
2h
15 min
30mn
30-60 minutes
30 minutes
30 min.
20 minutes
45 minutes
45 minutes
1 hout
1 hour
30 minutes
1h
45 mins
1h-1h 30min
30 minutes
10min
30m
30min
2 hours
30 min
1-2 hours
30
1 hour
30 minutes
2
1 hour
1 hour
20 minutes
2
1 hour
1 hour
hours
0:15:00
25mins
1
30 minutes
15 minutes
1 hour
30
1,5 h
1hr
1 hour
30m
30mins
30 minutes
20 minutes
30min
1h
15min
0:15:00
2 hours
1 hour
2 hours
30m
1
1hr
30 minutes
30 min
20min
20 minutes
15min
45 minutes
30 mins
30 minutes
5 minutes
30 minutes
15 minutes
5 minutes
30
30
30 minutes
1 hour

1 hour
0.5
2 hours
2 hrs
2
90 minutes
1 hour
30 min.
20 minutes
1 hour
minutes
60 minutes
1hour
10 minutes
60 minutes
0:30:00
2
20 minutes
35
30 m
30 minutes
1 hour
1
30 minutes
1
1 hour
30 minutes
2 hours
30 minutes
3 minutes
1 hour
1 hour ish
1 hour
0.5 hours
minutes
1 hour 30
1hr
1.5
1 to 2 hours
1hour
1-2hours
30 minutes
45 min
1 hr
20 minutes
5 Minutes
35 minutes
30 minutes
15min
2h
1
2
15 minutes
30m
30 mins - 1 hour
30 min
1 hour
5min
30 minutes
30 minutes
20 minutes
2 hours
30 mins
15 min
2 hours
1 hour
30 minutes
2 hours
60 minutes
1 hour
2 hours
2 hours
30 minutes
1.5 hours
1
15 minutes
1 hour
20 minutes
20 minutes
90 minutes
1 hour
40-50 minutes
1 hour
1 hour
0
2 hours
30 minutes
30 min
30 minutes
1.5h
1h
0:10:00
10 minutes
30
1 hour
25min
30 minutes
45
2 hours
30 minutes
1
0:30:00
1 hour
1 hour
1 hour
15
1 hour
1 hour
10 minutes
1
30mins
30
1.5
30minutes

45 min
2 hours
30 minutes
2 hours
1
1 h
1 hour
5 minutes
30minutes
1

1 hour
45
30 mins
30 minutes or less
60 minutes
30 min
30minutes
1 hour
1 hours
2 minutes
1
45 minutes
30 minutes
30 minutes
1 hour
30 min
1 hour
1
30 minutes
30minutes
30 min
minutes
30 min
1 hour
2
30 minutes
50 minutes
1 hour
15 minutes

1
3hrs
1 hour
20 minutes
10 mins
1 hour
1 hour
3 hours
1 hour
3 hours
1
1 hour
30 minutes
3
15 minutes
20m
20m
snail mail ftw
30 min
4 hours
1 hour
30 minutes
1 hour
30 minutes
1 hour
1hr
2h
1 hour
30 minutes
30min
20-30 min
1h
1h
10minutes

none
2 hours
20 minutes
30 minutes
30 minutes
1 hr
30 minutes

2 hours
1
10
10minutes
30 mins
30 minutes
1
10min
30 minutes
1 hour
1hr
4h
60m
30 minutes
5 minutes
45 minutes
30m
20 minutes
30min
5
30 minutes
1 hour
30 minutes
2 hours
20
0
1 Hour
45m
30 minutes
1.5hrs
2 hours
40 minutes
30m
30m
30 minutes

3 hours
0.5 hours
1h
1h
15 minutes
30min
1 hr
3
5 minutes
60 minutes
20 minutes
30 minutes
1 hour
.5h
30 minutes
30 minutes
30min
1 hour
42
1 hour
2 hours
1 hour
10
1 hr
15 minutes
10min
2 hours
10 min
1-2 hours
1 hr
2000
30 minutes
30 minutes
30 mins
30 minutes
2 hours
20 min
20 minutes
2 hours
1
20 minutes
3 hours
60
30 minutes
30 minutes
90m
1h
15 minutes
1 hours
20minutes
15 min
20 mins
2h
1 hour
20min
1 hour
45 minutes
30 minutes
1 hour
10min
1
0
35
20 minutes
30mins
1 hr
30min
1 hour
1 hour
0
1 hour
2 hours 
1.5
30min
5 minutes
2 hours
1
20 min
1 hour
30min
1
30 minutes
30 minutes
1.5 hours
5 minutes
1 hour
1 hour
20min
60 minutes
30 mins
30 minutes
100 h
20 minutes
1 hour
20 minutes
1 hour
1 hour
As little as possible
1 hour
20 minutes
1hr
3 hours
1 hour
1
5 minutes
30 mins
30 minutes
1.5
3
2
1.5
15 minutes
1 hour
30 min
1 hour
30-40 mins
45m
30mins
1 hour
5 to 30 mins
10 minutes
1 hour
30 minutes
45m
5min
1hr
1 hour
30mins
1 hour
60 minutes
3 hours
10 minutes
1h
1 hour
30 minutes
1 hour
1 hour or so
30 minutes
15 minutes
1
30 mins
60 minutes
60 minutes
45 minutes
30 minutes
5 minutes
30 minutes
At least an hour
2
30 minutes

30mins
20mins
2 hours
1 hour
30 minutes
1
30 minutes
4 hours
30
15 minutes
1 hour
1 hour
60
10 minutes
45 minutes
40
2 hours
30 Minutes
1 hour
15 minutes
10 minutes
2 hours
1 hour
15
1 hour
1 hour
2 hours
30 minutes
30 minutes
1 hour
30 minutes
30
60 min
30minutes
30 minutes
45 minutes
1 hour
1 hour
.5h
5-20 minutes
30 minutes
30 minutes
1:30:00
1 hour
30 to 40 minutes
1
15 minutes
1hr
0:20:00
20 minutes
45minutes
20 minutes
3 hours
10 min.
30 minutes
30min
1 hour
30 minutes
15min
1hr
1 hour
3
30 min
30 minutes
1h
1 hour
2 hours
45 minutes
10 minutes
1 hour
30 minutes
.5 hours
less than 1 hour
1-2 hours
30 min
60 minutes
2 hour
30 minutes
cdsommers@gmail.com
1 hour
1 hour
2 hours
1 hour
15 minutes
1-2hours
10 mins
0.5
30 mins
30 minutes
30 minutes
1hr
30
30 mins
2 hours
30 mins
45mins
30 minutes
2hrs max
1 hour
15 minutes
1 hour
1 hour
2 hours
4 hours
10 mins
60MIN
1 hour
1h
30 min
30 - 60 Minutes (I Classify this under Management)
30 minutes
30 minutes
1.5 hours
1 hour
1 hour
30minutes
15m
30 minutes
10 min
1 hr
30 minutes
30 mins
20min
1 hour
1 hour
30 minutes
30 mins
45 minutes
30 min
30min
20 minutes
30 minutes
30 minutes
30 minutes
45min
0.5
10 minutes
1hr
1hr
1 Hour
20 minutes
1 hour
1 hour
1h
30min
30 min
0
45 minutes
30 minutes
1 h
30minutes
2-3 hours
30 minutes
30
20
> 30min
1hr
10 minutes
1h
1 HOUR
30
10 minutes
30 minutes
1 hour
1
1 hour
1
30 minutes
1hr
15 minutes a day
15 minutes
30 min
1 hour
20 min
20 minutes
5min
1 hour
1 hour
2 hours?
30m to an hour
1
1 hour
0
20 min
30 mins
20 mins
not sure. quite a bit.
45 minutes
1 hour
45 mins
1 hour
1 hour
hapf hour
1 hour
2 hrs
45
1 hour
5min
30 minutes
30 minutes
30minutes
1 hour
45minutes
1 hour
30 minutes
1
45min
2
20 mins
10 minutes
20 minutes
1
30 minutes
30 minutes
1
30mins
1 hour
1 hour
30 min
An hour ish?
1 hour
1 hour
70 minutes
2 hours
0.5
1
1 hour
1 hour
0.5
15 minutes
3
0
0.5
30 minutes
2
2
1
1
1
20 minutes
20
1 hour
0:30:00
0:20:00
1 hour
2
2
12
1 hour
1
1
45 minutes
2
10 minutes
2
30 minutes
2
1hour
1
1 hr
10 minutes
3 hours
30 minutes max
15 minutes
10m
1
0.5
1
0.5
15min
0.5
0
1 hour
20 minutes
30 minutes
30 minutes
5minutes
1
1:00:00
0.5
30 minutes
1
1 hour
0:45:00
2
1h
30 minutes
0.3
30 minutes
30 minutes
10 minutes
1
30 minutes
6
30 minutes
0.5
30 minutes
1 hour
1
0.5
0.5
1
30 minutes
30m
2 hours
0.33
30
1
1
4
30
30 minutes
1
0:30:00
1 hours
0.5
0:15:00
20 minutes
1
1 hour
0.5
1
5 minutes
1:00:00
1
1
0.5
30 minutes
30:00:00
1 hour
1hr
2
30 mins
1
45 minutes
1 hour
8
30 minutes
10 minutes
2
2
1
30 minutes
30 minutes
20 min
0:30:00
30m
30m
30 minutes
1
20 minutes
1
2 hours
30 minutes
30 minutes
30 minutes
45 minutes
1h
60 minutes
30 minutes
1 hour
0.25
1
1 hour
2
3
1
30 minutes
1
30 mins
2 hours
1
5 minutes
1
2
2 hours
0
1
1h
1
0.5
1
30mn
2
5 minutes
1
30 minutes
30 min
1
1
1
30 minutes
1
2 hours
1 hour
1
30 minutes
30 minutes
1
30 minutes
15 minutes
0.5
15 minutes
15 minutes
0:15:00
1
1 hour
1h
1
30 minutes
20 minutes
1h
45 minutes
0.5
0.5
0.2
1 hour
0:30:00
1
30 minutes
1 hour
5
2
1 hour
0.5
1
1
2
1 hour
0:30:00
1
1
45  min
1.5
1 hour
15 minutes
30 minutes
1.5 hours
15 minutes
0:10:00
1
15 minutes
0:30:00
3 hours
minutes
10 minutes
0.5
1
1
0:05:00
30 minutes
4
1 hour
20m
20m
1
1
0.5
0:45:00
1
1
minutes
30 minutes
0:30:00
1
4
1
1 hours
1 hour
1 hour
1
1 hour
2
20 to 30 minutes
1 hour
1
1 hour
0.5 hours
30 minutes
2 hours
0.5
1.5
1
0.5 hours
1
0
0.3
0:30:00
20 minutes
0.5
1hr
15 minutes
0.5
10 minutes
.5 hours
30 min
10 minutes
30 minutes
1
1
10 minuites
3
1 hour
1
1
2
30 minutes
2
1 hr
15min
1 hour
0.5
1:45:00
30 minutes
2
1
30 minutes
1
30 minutes
2
30 minutes
1h
1
1
45 minutes
1 hour
45 minutes
1
30 minutes
1 hour
30 Minutes
20minutes
2/3/2012
0.5
2 hours
0:20:00
2
10 minutes
0.5
<30 minutes
20min
1
1
1
1
1 hour
1.5
1 hour
0.3
2
1
30 minutes
20 minutes
30m
0
1 hour
15 minutes
0.5
20 minutes
30 minutes
1
10 minutes
1 hour
1
.5H
0.5
45 minutes
35 minutes
45 minutes
2
30m
1
1 hr
2
2 hours
0.5
1
20 minutes
30 minutes
2
0.1
30 minutes
30 minutes
1
0.5
2
1:30:00
0.15
30 minutes
1
30 minutes
1:00:00
2
30 min
1 hour
1
1
4
1
1 hour
20 Minutes
0.5
1h
1 hours
30 minutes
0
1 hour
2 hours
30 minutes
30 minutes
1
2
3 hours
5 hours
1
1
30 minutes
0.5
30 minutes
2 hours
0.5
0.5
1
30 minutes
1h
1
2hr
20 min
30 minutes
20 minutes
10 minutes
1.5 hours
30 minutes
0:30:00
1:30:00
1
30 minutes
1
3
1.5
1 hour
1 hour
0:10:00
1
1
30 minutes
90 minutes
1
30min
20 minutes
20 minutes
30 minutes
0.25
1
1:30:00
30 minutes
2 hour
0
30 minutes
1
0.5
0:30:00
0:10:00
60 minutes
1
30
1
1
30 minutes
0.5
0.5
1
20 minutes
30 minutes
30m
1
1
30 minutes
10 minutes
0.5
2
1.5
1
30 mins
3
2
30 minutes
1
1
20 minutes
1
1
5 minutes
30 minutes
2
30 minutes
0.33
2 hours
1.5 hours
2
20 minutes
5 minutes
0.5
30 minutes
~20 mins
1
30 minutes
1
30m
30 minutes
2
30 minutes
30
3 hours
45
2 hours 
30m
0.25
1
1
0.25
1
0.25
1 hour
1 hour
2
1 hour
1
30 minutes
1hr 
0.5
2 HOURS
1
30 minutes
1
1 hour
20 minutes
0:15:00
1
1 hour
3
1
0
0
3 hours
1
0
1
10 minutes
60 minutes
45mins
0.5
0.5
1 hour
2
1
2
30 mins
30 minutes
2
1
1
1/2/2012
30 minutes
30 minutes
0.25
30 mins
0.5
20
1
1 hour (best guess)
1 hour
1.5h
1
1 hour
0.5
5 min
0.5 hours
10
1
60 minutes
20 minutes
30 minutes
3 hours
1
0.5
1
0.5
30 minutes
0.5
1 hr
1
30m
45 minutes
1
1
1 hour
1 hour
20m
.5 hours
1
15min
0.5
45 minutes
60
30 minutes
30 minutes
2
1
20 minutes
0.5
0.25
1
2
1.5 hours
5 minutes
1
30 minutes
2 hours
1
1
30 minutes
1H
0.75
3
1
1
20 minutes
0.5
1
0.5
0.5
0.5
0.5
0.25
0:30:00
30 minutes
0.5
0.5
0.5
0.5
1
20 minutes
0.2
1
1
30 minutes
1
1
1
0:30:00
0.5
30 minutes
2.5 hours
30 minutes
0
0.5
2
1 hour
0.5
30
3
0
30 minutes
45 minutes
0:20:00
1
1
0.75
3 hours
1
0:10:00
1
1.5 hours
1
1
1
20 minutes
30 minutes
0.5
0.5
1h
1
2
30
120
10 minutes
0.3
20 minutes
30 min.
1
2 hours
1
30 minutes
30 minutes
2
1
1:00:00
45min
2
1.5
1
1 hr
2
0
30min
1 hour
1
0.5
0.5
1
1
1
30min
2 hours
1
0.5
1 hour
0.5
0.5
1
1h
30 minutes
1 hour a day 
0.5
2
2
2
.5h
30 minutes
30 minutes
2
45
15 minutes
30 minutes
2 hours
1
2 hours
0
150 minutes
20 min
1
1
2 hours
2
1
1 hour
1
2
30 minutes
0:30:00
120
1
1 hour
30 minutes
2
5 minutes
2 hours
40 minutes
30 minutes
20 min
1
1
1
1
1
45 minutes
1
1
1
0.5
2
5 minutes
1 hour
0:20:00
5 minutes
1
1
30min
1
1
0
1
1
30
15 min
30 minutes
1.5
1
1 hour
1:00:00
geluso@cs.washington.edu
0:40:00
30 minutes
~10 mins
1
1
1
2
2
3
30 minutes
1 hour
1
0.25
0
minutes
10 minutes
1
0.5
0:30:00
0
0.25
0,5
1
1
1
0.5 hours
30
5min
1
1 hour
1
1
1 hour
0.5
10 mins
1
20 min
15 minutes
30 minutes
1
1h
1
0.5
30min
0.5
2
30 minutes
1 hour
1h30m
1 hour
1
5 minutes
60 minutes
10 minutes
1
30 minutes
1
2
1 hour
30 minutes
2
10 mins
30 minutes
10 mins
30 minutes
1
30 minutes
3.5
1 hour
1 hour
30 minutes
30 mins
2 hours
3
30 minutes
3
1
30 mins
1
1.5
0.5
1
1.5
avoidiam@gmail.com
1 hour
.5 hours
1
0:15:00
1
1 hour
1h
40 minutes
1
30 minutes
30 minutes
1:30:00
5 minutes
2
1
30 minutes
45 minutes
20 minutes
1 hour
0.5
0:45:00
0.5
1
1
0.25
30 minutes
1.5 hours
0.5
30m
1
1
90 minutes
30min
1 hour
30 minutes
1
1
30 min
1
1 hour
10 minutes
1 hour
1
30 minutes
35-40 min
0.5
20
2 hours
1 hour
1
30 minutes
0.2
15 minutes
30 minutes
30 min
30 minutes
30min
1
1
15 minutes
0
0:45:00
1 hour
2h
3
2 hours
0.5
3
30 mins
2
1
1 hour
1
1
0.5
0:30:00
1.5 Hours
0.5
1 hour
20 minutes
20 minutes
45 minutes
30 minutes
90 minutes
30 min
2
1
1
1
15 minutes
0.5
0.25
0.5
1
1 hour
10 mins
2
9
1
1 - 3
0.5
20 minutes
2
1
1hr
0.5
15 minutes
1 hour
0.5
90 minutes
1 hour
30min
1 hour
1
2
1 hour
1
1 hour
1
2
5 minutes
5 minutes
0.5
1 hour
1.5
1
1
2
15 minutes
30 minutes
0.5
30 minutes
1
1
0:30:00
1
1
0
1
30 minutes
1.5
1
2
1 hour
1 hour
0.5
20 minutes
1hr/day
0.1
30 minutes
45 minutes
0min
1
10 minutes
0
30 min
1
0.5
0:30:00
2
30 minutes
0.5
1 hour
30
0.25
0.5
30min
30m
2
60mins
2 hours
30 minutes
30 minutes
1
0.5
2
1
0.2
0.5
20 minutes
30 minutes
2
1.5
0.5
1
1
1
0.25
1 hour
20minutes
0.5
1
0:10:00
15 minutes
1 hour
15
0
1 hour
1
0
20 Minutes
45 mins
1hr
1
0
1 hour
15
1
1
3
1
45 minutes
5m
30mins
15-20minutes
30 minutes
10 minutes
1
1
45 minutes
1 hour
1
0.5
1 hour
like 30 minutes
1.5
30 minutes
30m
1 hour
1 hour
1 hour
2
20 min
3
15 minutes
1 hour
0:20:00
1 hour
2
30 minutes
0.25
0.5
30 minutes
1:00:00
3 hours
2:00:00
.5 hours
1
20min
0.5
1 hour
30 minutes
1,5
30 min
1
2 hours
0.5
1
20mins
1
2
3
1
30
30
1 hour
1 hour
3 hours
30 minutes
3
3
2
0.5
3 hours
1
1
30
2
45m
1
1
25 minutes
1
1
30 Minutes
1:00:00
1
2hours
1
0.5 hours
1
0.5
1 hour
1
45 minutes
1
45 minutes
0.5
1
1 hour
1
105 minutes
30m
1
0.5
1 hour
10 minutes
15 minutes
0.5 hours
30 min
30 minutes
30 minutes
1 hour
2
30 minutes
2 hours
1:00:00
30m
15 minutes
1
4 hours
1.5 h
1
60 min
1
1
1 hour
1
2
1
I ignore people until they talk to me
1
1
30 minutes
1
1 hour
1
1
30
0.5
2 hours
10 minutes
20 minutes
1
1 hour
10
4
0:30:00
0.5 hours
1 hour
1 hour
10 mins
1
10 minutes
30 minutes
1.5
2
5 minutes
1
1
1
1 hour
1
1
1 hours
1
0.5
2
10 minutes
15
1
1
30 minutes
1
30 Minutes
1h
1 hour
90 minutes
0.2
2
1
30 minutes
10 minutes
10 minutes
45 minutes
30 minutes
1
0:30:00
0.5
2:30:00
2h
2 hours
0.5
2
2
0.5
0.5
1
1.5 hours
15 minutes
1
1
1
50m
30 minutes
1
10 minutes
10 minutes
30 minutes
1
0
2
1
:30
1
1
1 hour
2
30 minutes
1 hour
30 minutes
2
1
1
1hr
10 Minuts
30 minutes
1 hour
20 minutes
1.5 hours
2
1.5 hours
30
2
30 minutes
30 minutes
3:00:00
15 minutes
1 hour
3
1:00:00
2
1.5
20 min
45 minutes
20 minutes 
2
30 minutes
1
5 minutes
2:00:00
1 minute
0.5
1
30 minutes
1
1
10 minutes
30 minutes
1:00:00
1
0
2
0
1 hour
30 minutes
0.25
1 hour
1:00:00
0.5
1 hour
0:30:00
0:00:45
0.5
1
0.5
0:30:00
1 hout
2 hours
45 minutes
1
0.5
1 hour
1:00:00
120 minutes
1
0.5
0.5
30 minutes
0:30:00
15 minutes
0:30:00
0.5
1
1
0.25
30 minutes
30min
30 minutes
0.3
30 minutes
2h
1
1
1 hours
30min
15 minutes
30 minutes
0.25 hours
0
0.5
1 hour
0.5 hours
2
30 minutes
2 hours
2
60
0.5
0.5
0:30:00
20 minutes
1h
0:30:00
0:30:00
1h
1 hour
0:30:00
1h
1h
0,5
0.25
1h
1
25 minutes
0.25
1
30 minutes
2
2 hours
1hr
30 mins
20 minutes
1
0.5
2
20 min
2
1
0:30:00
1 hour
2 hours
1
0.5
0.5
30 minutes
2 hours
1 hour 30 minutes
30 min
30 minutes
1 hour
0
01:30 hours
1
1
20 minutes
2
30 minutes
30 minutes
1
30 minutes
30m
0.5
0.5
1
0:20:00
1 hour
30 minutes
1h - 1h30m
1 hour
1
30 Minutes
15m
30 minutes
0.5
0
45 minutes
1
30 min
1
0.5 hours
1
1.5
1
1:00:00
1:00:00
0.5
1
30
30 minutes
15 minutes
150 minutes
1 hour
30 min
foreveralone
2
2
1
1 hour
1
1
1
1 hr
20 minutes
6
1
1
1 hour
30 minutes
1
0.25
30min
30 minutes
2
2
20 minutes
2
20 MINUTES
1hour
2
1
30
5 minutes
0/5
20 minutes
1
2 hours
1
1 hour
1 hour
1 hour
1 hour
0:15:00
1
1
1
30 minutes
30 minutes
30 minutes
2
1
1 hour
30m
30 minutes
3 hours
1
3
1
0.5
1
1
1 hour
1
1-2 hours
30 minutes
20 minutes
1
0.5
1
1h
30 minutes
0
1 hour or less
1
1
.5 hours
1
1.5
0.5
30 minutes
2 hours
-394879837483
0.5
30 minutes
30 minutes
1 hour
1
1
0.5
1 hour
1 hour
1
1 hour
0.5
1.5 hours
2
35 minutes
1
1
1
15 minutes
0.5
2
1
30m
0.5
1
1
30 minutes
1
2 hours
1
1 hour
1 hour
1 hour
30 minutes
1 hour
4hr
1
1 hour
60minutes
0.5
2 hours
0.5
1 hour
1
2 hours
1
0.5
1
2
0.5
30 minutes
5m
0.5
2
5 mins
1
1
30 minutes
30 minutes
2:00:00
30 minutes
5 minutes
0.5
30 minutes
1.5
1
5 minutes
1 hour
30
15 minutes
40mins
2 hours
4
8
20 minutes
1 hour
30 minutes
75min
75min
75min
45minutes
2
1
1:30:00
1 hour
1
30 minutes
30 mins
1
0.5
15 minutes
0.5
30 minutes
75min
20 minutes
1 hour
1 hour
1 hour
30 minutes
20 minutes
0.5h
2
20 minutes
30 minutes
2
1
1 hour
30 minutes
1
20 minutes
1 hour
1 hour
0.5
3
1.5
0.25
1
5 minutes
1
1 hour
1hr
30 minutes
1
10 minutes
30 minutes
1 hour
1
3
10 minutes
0.1 hours
30 minutes
1
2 hours
2
1 hour
30m
1
45 minutes
15 minutes
0.5
1hour
0.5 hours
0.5 hours
10 minutes
0.5
1:00:00
1.5 hours
1ish
